%YAML 1.1
%TAG !u! tag:unity3d.com,2011:
--- !u!74 &7400000
AnimationClip:
  m_ObjectHideFlags: 0
  m_CorrespondingSourceObject: {fileID: 0}
  m_PrefabInternal: {fileID: 0}
  m_Name: PlayerDeath
  serializedVersion: 6
  m_Legacy: 0
  m_Compressed: 0
  m_UseHighQualityCurve: 1
  m_RotationCurves: []
  m_CompressedRotationCurves: []
  m_EulerCurves: []
  m_PositionCurves: []
  m_ScaleCurves: []
  m_FloatCurves: []
  m_PPtrCurves:
  - curve:
    - time: 0
      value: {fileID: 21300000, guid: d31612dc50d7c944ca419836362a0112, type: 3}
    - time: 0.125
      value: {fileID: 21300000, guid: 11592a0b5f1d84c42b31729914d8ef78, type: 3}
    - time: 0.25
      value: {fileID: 21300000, guid: efa1e239a79810d49ac4322b079f27b9, type: 3}
    - time: 0.375
      value: {fileID: 21300000, guid: 20eaf3352119b4a498d894619016f686, type: 3}
    - time: 0.5
      value: {fileID: 21300000, guid: 8143c843fd2934a4880584640fa50c21, type: 3}
    - time: 0.625
      value: {fileID: 21300000, guid: 98dda13dc8bdd7942a802db594a5fae3, type: 3}
    - time: 0.75
      value: {fileID: 21300000, guid: bb85b7b5b670de546b0be388480e0a78, type: 3}
    - time: 0.875
      value: {fileID: 21300000, guid: 68b0159974b8f1c4fabb133d28ac2a9d, type: 3}
    - time: 1
      value: {fileID: 21300000, guid: 68b0159974b8f1c4fabb133d28ac2a9d, type: 3}
    - time: 1.125
      value: {fileID: 21300000, guid: 68b0159974b8f1c4fabb133d28ac2a9d, type: 3}
    - time: 1.25
      value: {fileID: 21300000, guid: 68b0159974b8f1c4fabb133d28ac2a9d, type: 3}
    - time: 1.375
      value: {fileID: 21300000, guid: 68b0159974b8f1c4fabb133d28ac2a9d, type: 3}
    attribute: m_Sprite
    path: 
    classID: 212
    script: {fileID: 0}
  m_SampleRate: 8
  m_WrapMode: 0
  m_Bounds:
    m_Center: {x: 0, y: 0, z: 0}
    m_Extent: {x: 0, y: 0, z: 0}
  m_ClipBindingConstant:
    genericBindings:
    - serializedVersion: 2
      path: 0
      attribute: 0
      script: {fileID: 0}
      typeID: 212
      customType: 23
      isPPtrCurve: 1
    pptrCurveMapping:
    - {fileID: 21300000, guid: d31612dc50d7c944ca419836362a0112, type: 3}
    - {fileID: 21300000, guid: 11592a0b5f1d84c42b31729914d8ef78, type: 3}
    - {fileID: 21300000, guid: efa1e239a79810d49ac4322b079f27b9, type: 3}
    - {fileID: 21300000, guid: 20eaf3352119b4a498d894619016f686, type: 3}
    - {fileID: 21300000, guid: 8143c843fd2934a4880584640fa50c21, type: 3}
    - {fileID: 21300000, guid: 98dda13dc8bdd7942a802db594a5fae3, type: 3}
    - {fileID: 21300000, guid: bb85b7b5b670de546b0be388480e0a78, type: 3}
    - {fileID: 21300000, guid: 68b0159974b8f1c4fabb133d28ac2a9d, type: 3}
    - {fileID: 21300000, guid: 68b0159974b8f1c4fabb133d28ac2a9d, type: 3}
    - {fileID: 21300000, guid: 68b0159974b8f1c4fabb133d28ac2a9d, type: 3}
    - {fileID: 21300000, guid: 68b0159974b8f1c4fabb133d28ac2a9d, type: 3}
    - {fileID: 21300000, guid: 68b0159974b8f1c4fabb133d28ac2a9d, type: 3}
  m_AnimationClipSettings:
    serializedVersion: 2
    m_AdditiveReferencePoseClip: {fileID: 0}
    m_AdditiveReferencePoseTime: 0
    m_StartTime: 0
    m_StopTime: 1.5
    m_OrientationOffsetY: 0
    m_Level: 0
    m_CycleOffset: 0
    m_HasAdditiveReferencePose: 0
    m_LoopTime: 0
    m_LoopBlend: 0
    m_LoopBlendOrientation: 0
    m_LoopBlendPositionY: 0
    m_LoopBlendPositionXZ: 0
    m_KeepOriginalOrientation: 0
    m_KeepOriginalPositionY: 1
    m_KeepOriginalPositionXZ: 0
    m_HeightFromFeet: 0
    m_Mirror: 0
  m_EditorCurves: []
  m_EulerEditorCurves: []
  m_HasGenericRootTransform: 0
  m_HasMotionFloatCurves: 0
  m_GenerateMotionCurves: 0
  m_Events: []
